(
)
,
;
addop
assign
boolean
else
float
id
if
int
mulop
num
relop
while
{
}

 ----------  grps ---------------- 
n: 0  mg: 0
n: 1  mg: 0
n: 2 -- acc : ( mg: 8
n: 3 -- acc : ) mg: 9
n: 4 -- acc : mulop mg: 15
n: 5 -- acc : addop mg: 12
n: 6 -- acc : , mg: 7
n: 7 -- acc : addop mg: 12
n: 8 -- acc : mulop mg: 15
n: 9 -- acc : num mg: 16
n: 10 -- acc : ; mg: 6
n: 11 -- acc : relop mg: 17
n: 12 -- acc : assign mg: 13
n: 13 -- acc : relop mg: 17
n: 14 -- acc : id mg: 14
n: 15 -- acc : id mg: 14
n: 16 -- acc : id mg: 14
n: 17 -- acc : id mg: 14
n: 18 -- acc : id mg: 14
n: 19 -- acc : id mg: 14
n: 20 -- acc : id mg: 14
n: 21 -- acc : { mg: 10
n: 22 -- acc : } mg: 11
n: 23 -- acc : relop mg: 17
n: 24  mg: 0
n: 25 -- acc : relop mg: 17
n: 26 -- acc : relop mg: 17
n: 27 -- acc : relop mg: 17
n: 28 -- acc : id mg: 14
n: 29 -- acc : id mg: 14
n: 30 -- acc : id mg: 14
n: 31 -- acc : id mg: 14
n: 32 -- acc : id mg: 14
n: 33 -- acc : id mg: 14
n: 34 -- acc : if mg: 3
n: 35 -- acc : id mg: 14
n: 36 -- acc : id mg: 14
n: 37 -- acc : num mg: 16
n: 38 -- acc : id mg: 14
n: 39 -- acc : id mg: 14
n: 40 -- acc : id mg: 14
n: 41 -- acc : int mg: 1
n: 42 -- acc : id mg: 14
n: 43  mg: 0
n: 44 -- acc : id mg: 14
n: 45 -- acc : else mg: 4
n: 46 -- acc : id mg: 14
n: 47 -- acc : id mg: 14
n: 48 -- acc : num mg: 16
n: 49 -- acc : id mg: 14
n: 50 -- acc : float mg: 2
n: 51 -- acc : while mg: 5
n: 52 -- acc : id mg: 14
n: 53 -- acc : boolean mg: 0
before constructing : 
    ********       
rep : 0 , 
    ********       
    ********       
rep : 1 , boolean
    ********       
    ********       
rep : 2 , 
    ********       
    ********       
rep : 3 , 
    ********       
    ********       
rep : 4 , 
    ********       
    ********       
rep : 5 , int
    ********       
    ********       
rep : 6 , float
    ********       
    ********       
rep : 7 , if
    ********       
    ********       
rep : 8 , else
    ********       
    ********       
rep : 9 , while
    ********       
    ********       
rep : 10 , ;
    ********       
    ********       
rep : 11 , ,
    ********       
    ********       
rep : 12 , (
    ********       
    ********       
rep : 13 , )
    ********       
    ********       
rep : 14 , {
    ********       
    ********       
rep : 15 , }
    ********       
    ********       
rep : 16 , addop
    ********       
    ********       
rep : 17 , assign
    ********       
    ********       
rep : 18 , id
    ********       
    ********       
rep : 19 , id
    ********       
    ********       
rep : 20 , id
    ********       
    ********       
rep : 21 , id
    ********       
    ********       
rep : 22 , id
    ********       
    ********       
rep : 23 , id
    ********       
    ********       
rep : 24 , id
    ********       
    ********       
rep : 25 , id
    ********       
    ********       
rep : 26 , id
    ********       
    ********       
rep : 27 , id
    ********       
    ********       
rep : 28 , id
    ********       
    ********       
rep : 29 , id
    ********       
    ********       
rep : 30 , id
    ********       
    ********       
rep : 31 , id
    ********       
    ********       
rep : 32 , id
    ********       
    ********       
rep : 33 , id
    ********       
    ********       
rep : 34 , id
    ********       
    ********       
rep : 35 , id
    ********       
    ********       
rep : 36 , id
    ********       
    ********       
rep : 37 , id
    ********       
    ********       
rep : 38 , mulop
    ********       
    ********       
rep : 39 , num
    ********       
    ********       
rep : 40 , num
    ********       
    ********       
rep : 41 , num
    ********       
    ********       
rep : 42 , relop
    ********       
    ********       
rep : 43 , relop
    ********       
rec printing 
size 44
4,0 -- !
0,42 -- = --- relop
4,12 -- ( --- (
4,13 -- ) --- )
4,38 -- * --- mulop
4,16 -- + --- addop
4,11 -- , --- ,
4,16 -- - --- addop
4,38 -- / --- mulop
4,41 -- 0-9 --- num
4,10 -- ; --- ;
4,43 -- < --- relop
43,42 -- = --- relop
4,17 -- = --- assign
17,42 -- = --- relop
4,43 -- > --- relop
4,37 -- A-Z --- id
37,37 -- 0-9 --- id
37,37 -- A-Z --- id
37,37 -- a --- id
37,37 -- b --- id
37,37 -- e --- id
37,37 -- f --- id
37,37 -- h --- id
37,37 -- i --- id
37,37 -- l --- id
37,37 -- n --- id
37,37 -- o --- id
37,37 -- s --- id
37,37 -- t --- id
37,37 -- w --- id
37,37 -- $a,b,e,f,h,i,l,n,o,s,t,w --- id
4,37 -- a --- id
4,36 -- b --- id
36,37 -- 0-9 --- id
36,37 -- A-Z --- id
36,37 -- a --- id
36,37 -- b --- id
36,37 -- e --- id
36,37 -- f --- id
36,37 -- h --- id
36,37 -- i --- id
36,37 -- l --- id
36,37 -- n --- id
36,35 -- o --- id
35,37 -- 0-9 --- id
35,37 -- A-Z --- id
35,37 -- a --- id
35,37 -- b --- id
35,37 -- e --- id
35,37 -- f --- id
35,37 -- h --- id
35,37 -- i --- id
35,37 -- l --- id
35,37 -- n --- id
35,33 -- o --- id
33,37 -- 0-9 --- id
33,37 -- A-Z --- id
33,37 -- a --- id
33,37 -- b --- id
33,37 -- e --- id
33,37 -- f --- id
33,37 -- h --- id
33,37 -- i --- id
33,28 -- l --- id
28,37 -- 0-9 --- id
28,37 -- A-Z --- id
28,37 -- a --- id
28,37 -- b --- id
28,24 -- e --- id
24,37 -- 0-9 --- id
24,37 -- A-Z --- id
24,21 -- a --- id
21,37 -- 0-9 --- id
21,37 -- A-Z --- id
21,37 -- a --- id
21,37 -- b --- id
21,37 -- e --- id
21,37 -- f --- id
21,37 -- h --- id
21,37 -- i --- id
21,37 -- l --- id
21,1 -- n --- boolean
1,37 -- 0-9 --- id
1,37 -- A-Z --- id
1,37 -- a --- id
1,37 -- b --- id
1,37 -- e --- id
1,37 -- f --- id
1,37 -- h --- id
1,37 -- i --- id
1,37 -- l --- id
1,37 -- n --- id
1,37 -- o --- id
1,37 -- s --- id
1,37 -- t --- id
1,37 -- w --- id
1,37 -- $a,b,e,f,h,i,l,n,o,s,t,w --- id
21,37 -- o --- id
21,37 -- s --- id
21,37 -- t --- id
21,37 -- w --- id
21,37 -- $a,b,e,f,h,i,l,n,o,s,t,w --- id
24,37 -- b --- id
24,37 -- e --- id
24,37 -- f --- id
24,37 -- h --- id
24,37 -- i --- id
24,37 -- l --- id
24,37 -- n --- id
24,37 -- o --- id
24,37 -- s --- id
24,37 -- t --- id
24,37 -- w --- id
24,37 -- $a,b,e,f,h,i,l,n,o,s,t,w --- id
28,37 -- f --- id
28,37 -- h --- id
28,37 -- i --- id
28,37 -- l --- id
28,37 -- n --- id
28,37 -- o --- id
28,37 -- s --- id
28,37 -- t --- id
28,37 -- w --- id
28,37 -- $a,b,e,f,h,i,l,n,o,s,t,w --- id
33,37 -- n --- id
33,37 -- o --- id
33,37 -- s --- id
33,37 -- t --- id
33,37 -- w --- id
33,37 -- $a,b,e,f,h,i,l,n,o,s,t,w --- id
35,37 -- s --- id
35,37 -- t --- id
35,37 -- w --- id
35,37 -- $a,b,e,f,h,i,l,n,o,s,t,w --- id
36,37 -- s --- id
36,37 -- t --- id
36,37 -- w --- id
36,37 -- $a,b,e,f,h,i,l,n,o,s,t,w --- id
4,30 -- e --- id
30,37 -- 0-9 --- id
30,37 -- A-Z --- id
30,37 -- a --- id
30,37 -- b --- id
30,37 -- e --- id
30,37 -- f --- id
30,37 -- h --- id
30,37 -- i --- id
30,27 -- l --- id
27,37 -- 0-9 --- id
27,37 -- A-Z --- id
27,37 -- a --- id
27,37 -- b --- id
27,37 -- e --- id
27,37 -- f --- id
27,37 -- h --- id
27,37 -- i --- id
27,37 -- l --- id
27,37 -- n --- id
27,37 -- o --- id
27,18 -- s --- id
18,37 -- 0-9 --- id
18,37 -- A-Z --- id
18,37 -- a --- id
18,37 -- b --- id
18,8 -- e --- else
8,37 -- 0-9 --- id
8,37 -- A-Z --- id
8,37 -- a --- id
8,37 -- b --- id
8,37 -- e --- id
8,37 -- f --- id
8,37 -- h --- id
8,37 -- i --- id
8,37 -- l --- id
8,37 -- n --- id
8,37 -- o --- id
8,37 -- s --- id
8,37 -- t --- id
8,37 -- w --- id
8,37 -- $a,b,e,f,h,i,l,n,o,s,t,w --- id
18,37 -- f --- id
18,37 -- h --- id
18,37 -- i --- id
18,37 -- l --- id
18,37 -- n --- id
18,37 -- o --- id
18,37 -- s --- id
18,37 -- t --- id
18,37 -- w --- id
18,37 -- $a,b,e,f,h,i,l,n,o,s,t,w --- id
27,37 -- t --- id
27,37 -- w --- id
27,37 -- $a,b,e,f,h,i,l,n,o,s,t,w --- id
30,37 -- n --- id
30,37 -- o --- id
30,37 -- s --- id
30,37 -- t --- id
30,37 -- w --- id
30,37 -- $a,b,e,f,h,i,l,n,o,s,t,w --- id
4,34 -- f --- id
34,37 -- 0-9 --- id
34,37 -- A-Z --- id
34,37 -- a --- id
34,37 -- b --- id
34,37 -- e --- id
34,37 -- f --- id
34,37 -- h --- id
34,37 -- i --- id
34,31 -- l --- id
31,37 -- 0-9 --- id
31,37 -- A-Z --- id
31,37 -- a --- id
31,37 -- b --- id
31,37 -- e --- id
31,37 -- f --- id
31,37 -- h --- id
31,37 -- i --- id
31,37 -- l --- id
31,37 -- n --- id
31,25 -- o --- id
25,37 -- 0-9 --- id
25,37 -- A-Z --- id
25,23 -- a --- id
23,37 -- 0-9 --- id
23,37 -- A-Z --- id
23,37 -- a --- id
23,37 -- b --- id
23,37 -- e --- id
23,37 -- f --- id
23,37 -- h --- id
23,37 -- i --- id
23,37 -- l --- id
23,37 -- n --- id
23,37 -- o --- id
23,37 -- s --- id
23,6 -- t --- float
6,37 -- 0-9 --- id
6,37 -- A-Z --- id
6,37 -- a --- id
6,37 -- b --- id
6,37 -- e --- id
6,37 -- f --- id
6,37 -- h --- id
6,37 -- i --- id
6,37 -- l --- id
6,37 -- n --- id
6,37 -- o --- id
6,37 -- s --- id
6,37 -- t --- id
6,37 -- w --- id
6,37 -- $a,b,e,f,h,i,l,n,o,s,t,w --- id
23,37 -- w --- id
23,37 -- $a,b,e,f,h,i,l,n,o,s,t,w --- id
25,37 -- b --- id
25,37 -- e --- id
25,37 -- f --- id
25,37 -- h --- id
25,37 -- i --- id
25,37 -- l --- id
25,37 -- n --- id
25,37 -- o --- id
25,37 -- s --- id
25,37 -- t --- id
25,37 -- w --- id
25,37 -- $a,b,e,f,h,i,l,n,o,s,t,w --- id
31,37 -- s --- id
31,37 -- t --- id
31,37 -- w --- id
31,37 -- $a,b,e,f,h,i,l,n,o,s,t,w --- id
34,37 -- n --- id
34,37 -- o --- id
34,37 -- s --- id
34,37 -- t --- id
34,37 -- w --- id
34,37 -- $a,b,e,f,h,i,l,n,o,s,t,w --- id
4,37 -- h --- id
4,20 -- i --- id
20,37 -- 0-9 --- id
20,37 -- A-Z --- id
20,37 -- a --- id
20,37 -- b --- id
20,37 -- e --- id
20,7 -- f --- if
7,37 -- 0-9 --- id
7,37 -- A-Z --- id
7,37 -- a --- id
7,37 -- b --- id
7,37 -- e --- id
7,37 -- f --- id
7,37 -- h --- id
7,37 -- i --- id
7,37 -- l --- id
7,37 -- n --- id
7,37 -- o --- id
7,37 -- s --- id
7,37 -- t --- id
7,37 -- w --- id
7,37 -- $a,b,e,f,h,i,l,n,o,s,t,w --- id
20,37 -- h --- id
20,37 -- i --- id
20,37 -- l --- id
20,22 -- n --- id
22,37 -- 0-9 --- id
22,37 -- A-Z --- id
22,37 -- a --- id
22,37 -- b --- id
22,37 -- e --- id
22,37 -- f --- id
22,37 -- h --- id
22,37 -- i --- id
22,37 -- l --- id
22,37 -- n --- id
22,37 -- o --- id
22,37 -- s --- id
22,5 -- t --- int
5,37 -- 0-9 --- id
5,37 -- A-Z --- id
5,37 -- a --- id
5,37 -- b --- id
5,37 -- e --- id
5,37 -- f --- id
5,37 -- h --- id
5,37 -- i --- id
5,37 -- l --- id
5,37 -- n --- id
5,37 -- o --- id
5,37 -- s --- id
5,37 -- t --- id
5,37 -- w --- id
5,37 -- $a,b,e,f,h,i,l,n,o,s,t,w --- id
22,37 -- w --- id
22,37 -- $a,b,e,f,h,i,l,n,o,s,t,w --- id
20,37 -- o --- id
20,37 -- s --- id
20,37 -- t --- id
20,37 -- w --- id
20,37 -- $a,b,e,f,h,i,l,n,o,s,t,w --- id
4,37 -- l --- id
4,37 -- n --- id
4,37 -- o --- id
4,37 -- s --- id
4,37 -- t --- id
4,32 -- w --- id
32,37 -- 0-9 --- id
32,37 -- A-Z --- id
32,37 -- a --- id
32,37 -- b --- id
32,37 -- e --- id
32,37 -- f --- id
32,29 -- h --- id
29,37 -- 0-9 --- id
29,37 -- A-Z --- id
29,37 -- a --- id
29,37 -- b --- id
29,37 -- e --- id
29,37 -- f --- id
29,37 -- h --- id
29,26 -- i --- id
26,37 -- 0-9 --- id
26,37 -- A-Z --- id
26,37 -- a --- id
26,37 -- b --- id
26,37 -- e --- id
26,37 -- f --- id
26,37 -- h --- id
26,37 -- i --- id
26,19 -- l --- id
19,37 -- 0-9 --- id
19,37 -- A-Z --- id
19,37 -- a --- id
19,37 -- b --- id
19,9 -- e --- while
9,37 -- 0-9 --- id
9,37 -- A-Z --- id
9,37 -- a --- id
9,37 -- b --- id
9,37 -- e --- id
9,37 -- f --- id
9,37 -- h --- id
9,37 -- i --- id
9,37 -- l --- id
9,37 -- n --- id
9,37 -- o --- id
9,37 -- s --- id
9,37 -- t --- id
9,37 -- w --- id
9,37 -- $a,b,e,f,h,i,l,n,o,s,t,w --- id
19,37 -- f --- id
19,37 -- h --- id
19,37 -- i --- id
19,37 -- l --- id
19,37 -- n --- id
19,37 -- o --- id
19,37 -- s --- id
19,37 -- t --- id
19,37 -- w --- id
19,37 -- $a,b,e,f,h,i,l,n,o,s,t,w --- id
26,37 -- n --- id
26,37 -- o --- id
26,37 -- s --- id
26,37 -- t --- id
26,37 -- w --- id
26,37 -- $a,b,e,f,h,i,l,n,o,s,t,w --- id
29,37 -- l --- id
29,37 -- n --- id
29,37 -- o --- id
29,37 -- s --- id
29,37 -- t --- id
29,37 -- w --- id
29,37 -- $a,b,e,f,h,i,l,n,o,s,t,w --- id
32,37 -- i --- id
32,37 -- l --- id
32,37 -- n --- id
32,37 -- o --- id
32,37 -- s --- id
32,37 -- t --- id
32,37 -- w --- id
32,37 -- $a,b,e,f,h,i,l,n,o,s,t,w --- id
4,14 -- { --- {
4,15 -- } --- }
4,37 -- $a,b,e,f,h,i,l,n,o,s,t,w --- id
